Instances/480_50LG_4D/40.ins: 6172,41,100,76.32
Instances/480_50LG_4D/41.ins: 6423,44,100,74.49
Instances/480_50LG_4D/42.ins: 6340,43,100,75.67
Instances/480_50LG_4D/43.ins: 6662,45,100,66.50
Instances/480_50LG_4D/44.ins: 6962,46,100,72.03
Instances/480_50LG_4D/45.ins: 7291,49,100,60.43
Instances/480_50LG_4D/46.ins: 6487,44,100,70.64
Instances/480_50LG_4D/47.ins: 6513,43,100,70.69
Instances/480_50LG_4D/48.ins: 6805,46,100,65.43
Instances/480_50LG_4D/49.ins: 6923,44,100,79.32
Instances/480_50MX_4D/40.ins: 4838,35,100,108.76
Instances/480_50MX_4D/41.ins: 4849,34,100,99.69
Instances/480_50MX_4D/42.ins: 4432,32,100,111.71
Instances/480_50MX_4D/43.ins: 4668,33,100,105.06
Instances/480_50MX_4D/44.ins: 4580,35,100,101.77
Instances/480_50MX_4D/45.ins: 4440,32,100,114.55
Instances/480_50MX_4D/46.ins: 4154,30,100,110.30
Instances/480_50MX_4D/47.ins: 4410,31,100,103.29
Instances/480_50MX_4D/48.ins: 4529,34,100,106.29
Instances/480_50MX_4D/49.ins: 4382,33,100,111.96
