40	106	24	0	0	1440
0	0	1440	0	0	1440	8
0	0	1440	0	0	1440	8
0	0	1440	0	0	1440	8
0	0	1440	0	0	1440	8
0	0	1440	0	0	1440	8
0	0	1440	0	0	1440	8
0	0	1440	0	0	1440	8
0	0	1440	0	0	1440	8
0	0	1440	0	0	1440	8
0	0	1440	0	0	1440	8
0	0	1440	0	0	1440	8
0	0	1440	0	0	1440	8
0	0	1440	0	0	1440	8
0	0	1440	0	0	1440	8
0	0	1440	0	0	1440	8
0	0	1440	0	0	1440	8
0	0	1440	0	0	1440	8
0	0	1440	0	0	1440	8
0	0	1440	0	0	1440	8
0	0	1440	0	0	1440	8
0	0	1440	0	0	1440	8
0	0	1440	0	0	1440	8
0	0	1440	0	0	1440	8
0	0	1440	0	0	1440	8
0	0	1440	0	0	1440	8
0	0	1440	0	0	1440	8
0	0	1440	0	0	1440	8
0	0	1440	0	0	1440	8
0	0	1440	0	0	1440	8
0	0	1440	0	0	1440	8
0	0	1440	0	0	1440	8
0	0	1440	0	0	1440	8
0	0	1440	0	0	1440	8
0	0	1440	0	0	1440	8
0	0	1440	0	0	1440	8
0	0	1440	0	0	1440	8
0	0	1440	0	0	1440	8
0	0	1440	0	0	1440	8
0	0	1440	0	0	1440	8
0	0	1440	0	0	1440	8
175	1	1	475	535
91	-1	1	520	535
176	1	1	475	535
91	-1	1	520	535
177	1	1	475	535
91	-1	1	520	535
178	1	1	435	500
30	-1	1	480	500
179	1	1	450	510
133	-1	1	500	510
180	1	1	435	500
30	-1	1	480	500
181	1	1	475	535
91	-1	1	520	535
182	1	1	475	535
91	-1	1	520	535
183	1	1	475	535
91	-1	1	520	535
184	1	1	475	535
91	-1	1	520	535
213	1	1	420	480
24	-1	1	465	480
214	1	1	480	540
70	-1	1	525	540
215	1	1	420	480
24	-1	1	465	480
216	1	1	420	480
24	-1	1	465	480
219	1	1	420	480
24	-1	1	465	480
222	1	1	420	480
24	-1	1	465	480
224	1	1	420	480
24	-1	1	465	480
268	1	1	415	475
39	-1	1	460	475
269	1	1	480	540
112	-1	1	525	540
270	1	1	480	540
112	-1	1	525	540
271	1	1	480	540
112	-1	1	525	540
272	1	1	480	540
112	-1	1	525	540
337	1	1	420	480
2	-1	1	465	480
366	1	1	420	480
2	-1	1	465	480
382	1	1	420	480
2	-1	1	465	480
446	1	1	420	480
2	-1	1	465	480
501	1	1	470	530
79	-1	1	515	530
502	1	1	470	530
79	-1	1	515	530
503	1	1	470	530
79	-1	1	515	530
504	1	1	470	530
79	-1	1	515	530
505	1	1	480	540
138	-1	1	525	540
506	1	1	470	530
79	-1	1	515	530
507	1	1	470	530
79	-1	1	515	530
508	1	1	480	540
118	-1	1	525	540
509	1	1	480	540
118	-1	1	525	540
510	1	1	480	540
118	-1	1	525	540
511	1	1	480	540
118	-1	1	525	540
512	1	1	480	540
118	-1	1	525	540
513	1	1	480	540
118	-1	1	525	540
514	1	1	480	540
118	-1	1	525	540
515	1	1	480	540
118	-1	1	525	540
516	1	1	480	540
118	-1	1	525	540
517	1	1	480	540
118	-1	1	525	540
518	1	1	480	540
118	-1	1	525	540
519	1	1	455	515
102	-1	1	500	515
520	1	1	455	515
102	-1	1	500	515
521	1	1	455	515
102	-1	1	500	515
522	1	1	455	515
102	-1	1	500	515
523	1	1	455	515
102	-1	1	500	515
524	1	1	420	480
160	-1	1	465	480
525	1	1	420	480
160	-1	1	465	480
587	1	1	415	475
31	-1	1	460	475
588	1	1	440	500
19	-1	1	485	500
589	1	1	415	475
17	-1	1	460	475
590	1	1	440	500
19	-1	1	485	500
591	1	1	440	500
19	-1	1	485	500
592	1	1	440	500
19	-1	1	485	500
593	1	1	415	475
31	-1	1	460	475
594	1	1	455	515
84	-1	1	500	515
595	1	1	415	475
31	-1	1	460	475
596	1	1	455	515
84	-1	1	500	515
597	1	1	440	500
19	-1	1	485	500
598	1	1	440	500
19	-1	1	485	500
599	1	1	440	500
19	-1	1	485	500
600	1	1	415	475
31	-1	1	460	475
601	1	1	455	515
84	-1	1	500	515
602	1	1	440	500
19	-1	1	485	500
603	1	1	455	515
124	-1	1	500	515
604	1	1	440	500
19	-1	1	485	500
605	1	1	455	515
84	-1	1	500	515
606	1	1	415	475
17	-1	1	460	475
607	1	1	440	500
19	-1	1	485	500
608	1	1	415	475
31	-1	1	460	475
609	1	1	415	475
157	-1	1	460	475
610	1	1	440	500
19	-1	1	485	500
611	1	1	455	515
124	-1	1	500	515
612	1	1	415	475
31	-1	1	460	475
613	1	1	440	500
19	-1	1	485	500
614	1	1	455	515
124	-1	1	500	515
615	1	1	455	515
84	-1	1	500	515
616	1	1	440	500
19	-1	1	485	500
617	1	1	415	475
31	-1	1	460	475
618	1	1	415	475
31	-1	1	460	475
619	1	1	455	515
84	-1	1	500	515
620	1	1	440	500
19	-1	1	485	500
621	1	1	440	500
19	-1	1	485	500
622	1	1	415	475
17	-1	1	460	475
623	1	1	440	500
19	-1	1	485	500
624	1	1	455	515
124	-1	1	500	515
625	1	1	455	515
84	-1	1	500	515
626	1	1	455	515
124	-1	1	500	515
627	1	1	455	515
124	-1	1	500	515
628	1	1	465	525
86	-1	1	510	525
629	1	1	440	500
19	-1	1	485	500
630	1	1	440	500
19	-1	1	485	500
687	1	1	465	525
81	-1	1	510	525
733	1	1	465	525
121	-1	1	510	525
734	1	1	465	525
121	-1	1	510	525
735	1	1	465	525
121	-1	1	510	525
736	1	1	465	525
121	-1	1	510	525
737	1	1	465	525
121	-1	1	510	525
738	1	1	465	525
121	-1	1	510	525
739	1	1	465	525
121	-1	1	510	525
740	1	1	465	525
121	-1	1	510	525
741	1	1	420	480
40	-1	1	465	480
762	1	1	480	540
74	-1	1	525	540
2	465	480
17	460	475
19	485	500
24	465	480
30	480	500
31	460	475
39	460	475
40	465	480
70	525	540
74	525	540
79	515	530
81	510	525
84	500	515
86	510	525
91	520	535
102	500	515
112	525	540
118	525	540
121	510	525
124	500	515
133	500	510
138	525	540
157	460	475
160	465	480
