Instances/generator/480_long/10.ins
Instances/generator/480_long/11.ins
Instances/generator/480_long/12.ins
Instances/generator/480_long/13.ins
Instances/generator/480_long/14.ins
Instances/generator/480_long/15.ins
Instances/generator/480_long/16.ins
Instances/generator/480_long/17.ins
Instances/generator/480_long/18.ins
Instances/generator/480_long/19.ins
