{
    "requests": 50,
    "capacity": 100,
    "horizon": 480,
    "length_x": 120,
    "length_y": 120,
    "depots": {
      "d1":{"id":10000, "x":90,"y":90, "l":0, "u":90}, "d2":{"id":20000, "x":30,"y":30, "l":30, "u":210},
      "d3":{"id":30000, "x":90,"y":30, "l":60, "u":150}, "d4":{"id":40000, "x":30,"y":90, "l":90, "u":180},

      "d5":{"id":50000, "x":90,"y":90, "l":60, "u":240}, "d6":{"id":60000, "x":30,"y":30, "l":180, "u":270},
      "d7":{"id":70000, "x":90,"y":30, "l":240, "u":330}, "d8":{"id":80000, "x":30,"y":90, "l":150, "u":330},

      "d9":{"id":90000, "x":90,"y":90, "l":450, "u":540}, "d10":{"id":100000, "x":30,"y":30, "l":450, "u":540},
      "d11":{"id":110000, "x":90,"y":30, "l":450, "u":540}, "d12":{"id":120000, "x":30,"y":90, "l":360, "u":540}
    }
}
